<?xml version="1.0" encoding="utf-8"?>
<!-- Generator: Adobe Illustrator 17.1.0, SVG Export Plug-In . SVG Version: 6.00 Build 0)  -->
<!DOCTYPE svg PUBLIC "-//W3C//DTD SVG 1.1//EN" "http://www.w3.org/Graphics/SVG/1.1/DTD/svg11.dtd">
<svg version="1.1" id="Layer_1" xmlns="http://www.w3.org/2000/svg" xmlns:xlink="http://www.w3.org/1999/xlink" x="0px" y="0px"
	 viewBox="281 0 487 1021.2" enable-background="new 281 0 487 1021.2" xml:space="preserve">
<path fill="#FFFFFF" d="M549.2,200.3V2.9h-49.1v197.6c-120.2,12.3-214.6,114-214.6,238V782c0,132,107.4,239.2,239.2,239.2
	S763.9,913.8,763.9,782V438.3C763.9,314.4,669.4,212.6,549.2,200.3z M524.7,486.2c-24.7,0-44.8-20.1-44.8-44.8
	c0-24.7,20.1-44.8,44.8-44.8c24.7,0,44.8,20.1,44.8,44.8C569.5,466.1,549.4,486.2,524.7,486.2z"/>
</svg>
